\relax 
\providecommand\hyper@newdestlabel[2]{}
\providecommand\HyperFirstAtBeginDocument{\AtBeginDocument}
\HyperFirstAtBeginDocument{\ifx\hyper@anchor\@undefined
\global\let\oldcontentsline\contentsline
\gdef\contentsline#1#2#3#4{\oldcontentsline{#1}{#2}{#3}}
\global\let\oldnewlabel\newlabel
\gdef\newlabel#1#2{\newlabelxx{#1}#2}
\gdef\newlabelxx#1#2#3#4#5#6{\oldnewlabel{#1}{{#2}{#3}}}
\AtEndDocument{\ifx\hyper@anchor\@undefined
\let\contentsline\oldcontentsline
\let\newlabel\oldnewlabel
\fi}
\fi}
\global\let\hyper@last\relax 
\gdef\HyperFirstAtBeginDocument#1{#1}
\providecommand\HyField@AuxAddToFields[1]{}
\providecommand\HyField@AuxAddToCoFields[2]{}
\citation{DBLP:conf/oopsla/BoyapatiLR02}
\citation{DBLP:conf/popl/BoyapatiLS03}
\citation{rusthome}
\citation{Niko2018}
\citation{Casper2017}
\citation{Eric2015}
\citation{Ralf2018}
\citation{Eric2015}
\citation{Ralf2018}
\babel@aux{english}{}
\@writefile{toc}{\contentsline {title}{\textbf  {OSL}: A Formalized Ownership Language for Checking Memory Safety}{1}{chapter.1}}
\@writefile{toc}{\authcount {6}}
\@writefile{toc}{\contentsline {author}{Shuanglong Kan \and Zhe Chen  \and David San{\'a}n \and Shang-wei Lin \and Zhiqiu Huang \and Yang Liu }{1}{chapter.1}}
\@writefile{toc}{\contentsline {section}{\numberline {1}Introduction}{1}{section.1.1}}
\citation{rosu-serbanuta-2010-jlap}
\citation{bogdanas-rosu-2015-popl}
\citation{hathhorn-ellison-rosu-2015-pldi}
\@writefile{toc}{\contentsline {section}{\numberline {2}Ownership System and Memory Safety}{3}{section.1.2}}
\newlabel{sec:ownership}{{2}{3}{Ownership System and Memory Safety}{section.1.2}{}}
\@writefile{lol}{\contentsline {lstlisting}{\numberline {1.1}{An example of the relation between Rust and the ownership}}{3}{lstlisting.1.1}}
\newlabel{list:rustownership}{{1.1}{3}{Ownership System and Memory Safety}{lstlisting.1.1}{}}
\citation{rustdatarace}
\@writefile{toc}{\contentsline {section}{\numberline {3}The Syntax and Semantics of OSL}{4}{section.1.3}}
\newlabel{sec:osl-syntaxandsemantics}{{3}{4}{The Syntax and Semantics of OSL}{section.1.3}{}}
\@writefile{lof}{\contentsline {figure}{\numberline {1}{\ignorespaces The syntax of OSL}}{4}{figure.1.1}}
\newlabel{fig:syntaxosl}{{1}{4}{The syntax of OSL}{figure.1.1}{}}
\@writefile{lof}{\contentsline {figure}{\numberline {2}{\ignorespaces A translation from a Rust program and an OSL program}}{5}{figure.1.2}}
\newlabel{fig:translation}{{2}{5}{A translation from a Rust program and an OSL program}{figure.1.2}{}}
\@writefile{toc}{\contentsline {subsection}{\numberline {3.1}The Operational Semantics of OSL}{5}{subsection.1.3.1}}
\newlabel{sec:semanticsosl}{{3.1}{5}{The Operational Semantics of OSL}{subsection.1.3.1}{}}
\@writefile{toc}{\contentsline {paragraph}{$(1)$ Variable declarations and allocating new Resources.}{6}{section*.2}}
\newlabel{Declaration}{{3.1}{6}{$(1)$ Variable declarations and allocating new Resources}{section*.2}{}}
\newlabel{NewResource}{{3.1}{6}{$(1)$ Variable declarations and allocating new Resources}{section*.2}{}}
\@writefile{toc}{\contentsline {paragraph}{$(2)$ Borrowings.}{6}{section*.3}}
\newlabel{Borrow-Imm-Var}{{3.1}{6}{$(2)$ Borrowings}{section*.3}{}}
\newlabel{Borrow-Mut-Var}{{3.1}{6}{$(2)$ Borrowings}{section*.3}{}}
\@writefile{toc}{\contentsline {paragraph}{$(3)$ Reading Operations.}{6}{section*.4}}
\newlabel{Read-Rs}{{3.1}{7}{$(3)$ Reading Operations}{section*.4}{}}
\newlabel{Read-shrRef}{{3.1}{7}{$(3)$ Reading Operations}{section*.4}{}}
\newlabel{Read-mutRef}{{3.1}{7}{$(3)$ Reading Operations}{section*.4}{}}
\@writefile{toc}{\contentsline {paragraph}{$(4)$ LValues.}{7}{section*.5}}
\newlabel{LValue-Var}{{3.1}{7}{$(4)$ LValues}{section*.5}{}}
\newlabel{LValue-Location}{{3.1}{7}{$(4)$ LValues}{section*.5}{}}
\newlabel{LValue-immDref}{{3.1}{7}{$(4)$ LValues}{section*.5}{}}
\newlabel{LValue-mutDref}{{3.1}{8}{$(4)$ LValues}{section*.5}{}}
\@writefile{toc}{\contentsline {paragraph}{$(5)$ Expressions.}{8}{section*.6}}
\newlabel{Read-Var}{{3.1}{8}{$(5)$ Expressions}{section*.6}{}}
\newlabel{Dereference}{{3.1}{8}{$(5)$ Expressions}{section*.6}{}}
\@writefile{toc}{\contentsline {paragraph}{$(6)$ Transferring.}{8}{section*.7}}
\newlabel{Transfer-Resource}{{3.1}{8}{$(6)$ Transferring}{section*.7}{}}
\newlabel{Transfer-Move}{{3.1}{8}{$(6)$ Transferring}{section*.7}{}}
\newlabel{Transfer-Copy}{{3.1}{9}{$(6)$ Transferring}{section*.7}{}}
\newlabel{Transfer-shrRef}{{3.1}{9}{$(6)$ Transferring}{section*.7}{}}
\newlabel{Transfer-mutRef}{{3.1}{9}{$(6)$ Transferring}{section*.7}{}}
\@writefile{lof}{\contentsline {figure}{\numberline {3}{\ignorespaces An example to illustrate the semantics}}{9}{figure.1.3}}
\newlabel{fig:exampleborrow}{{3}{9}{An example to illustrate the semantics}{figure.1.3}{}}
\@writefile{toc}{\contentsline {paragraph}{$(7)$ Branches. }{9}{section*.8}}
\newlabel{Branch}{{3.1}{9}{$(7)$ Branches}{section*.8}{}}
\newlabel{Destruct}{{3.1}{9}{$(7)$ Branches}{section*.8}{}}
\@writefile{toc}{\contentsline {paragraph}{$(8)$ Destruct, Block, Sequential.}{9}{section*.9}}
\newlabel{Block}{{3.1}{10}{$(8)$ Destruct, Block, Sequential}{section*.9}{}}
\newlabel{Sequential}{{3.1}{10}{$(8)$ Destruct, Block, Sequential}{section*.9}{}}
\@writefile{toc}{\contentsline {paragraph}{$(9)$ Function Calls.}{10}{section*.10}}
\newlabel{Call}{{3.1}{10}{$(9)$ Function Calls}{section*.10}{}}
\newlabel{Set}{{3.1}{10}{$(9)$ Function Calls}{section*.10}{}}
\@writefile{toc}{\contentsline {subsection}{\numberline {3.2}Semantics for a set of configurations}{10}{subsection.1.3.2}}
\newlabel{Loop}{{3.2}{11}{Semantics for a set of configurations}{subsection.1.3.2}{}}
\@writefile{toc}{\contentsline {subsection}{\numberline {3.3}Extending the Semantics to Fields}{11}{subsection.1.3.3}}
\@writefile{toc}{\contentsline {section}{\numberline {4}Properties of Semantics}{11}{section.1.4}}
\newlabel{sec:properties}{{4}{11}{Properties of Semantics}{section.1.4}{}}
\newlabel{thm:terminal}{{1}{11}{Properties of Semantics}{theorem.1.4.1}{}}
\citation{OSL}
\newlabel{def:reachablestates}{{3}{12}{Properties of Semantics}{definition.1.3}{}}
\newlabel{lemma:no-dangling-pointers}{{2}{12}{Properties of Semantics}{theorem.1.4.2}{}}
\newlabel{thm:no-data-races}{{3}{12}{Properties of Semantics}{theorem.1.4.3}{}}
\@writefile{toc}{\contentsline {section}{\numberline {5}Implementation and Evaluation}{12}{section.1.5}}
\newlabel{sec:imp-eval}{{5}{12}{Implementation and Evaluation}{section.1.5}{}}
\citation{DBLP:journals/virology/FeistMP14}
\@writefile{lof}{\contentsline {figure}{\numberline {4}{\ignorespaces Translation 1}}{13}{figure.1.4}}
\newlabel{fig:translation1}{{4}{13}{Translation 1}{figure.1.4}{}}
\@writefile{lof}{\contentsline {figure}{\numberline {5}{\ignorespaces Translation 2}}{13}{figure.1.5}}
\newlabel{fig:translation2}{{5}{13}{Translation 2}{figure.1.5}{}}
\citation{DBLP:journals/scp/SwamyHMGJ06}
\citation{DBLP:conf/pldi/NagarakatteZMZ09}
\citation{DBLP:conf/iwmm/NagarakatteZMZ10}
\citation{DBLP:conf/icfp/PottierP13}
\citation{rusthome}
\citation{DBLP:conf/lics/Reynolds02}
\citation{DBLP:conf/fossacs/YangO02}
\citation{DBLP:conf/post/AmorimHP18}
\citation{DBLP:conf/ecoop/KaiserDDLV17}
\citation{DBLP:conf/spin/HenzingerJMS03}
\citation{DBLP:conf/rv/RosuSS09}
\@writefile{lof}{\contentsline {figure}{\numberline {6}{\ignorespaces Translation 3}}{14}{figure.1.6}}
\newlabel{fig:translation3}{{6}{14}{Translation 3}{figure.1.6}{}}
\@writefile{toc}{\contentsline {section}{\numberline {6}Related Work}{14}{section.1.6}}
\newlabel{sec:relatedwork}{{6}{14}{Related Work}{section.1.6}{}}
\bibstyle{plain}
\bibdata{reference.bib}
\bibcite{bogdanas-rosu-2015-popl}{1}
\@writefile{lof}{\contentsline {figure}{\numberline {7}{\ignorespaces A case study of OSL to C}}{15}{figure.1.7}}
\newlabel{fig:osltoc}{{7}{15}{A case study of OSL to C}{figure.1.7}{}}
\@writefile{toc}{\contentsline {section}{\numberline {7}Conclusion and Future Work}{15}{section.1.7}}
\newlabel{sec:conclusion}{{7}{15}{Conclusion and Future Work}{section.1.7}{}}
\bibcite{DBLP:conf/oopsla/BoyapatiLR02}{2}
\bibcite{DBLP:conf/popl/BoyapatiLS03}{3}
\bibcite{Casper2017}{4}
\bibcite{DBLP:conf/post/AmorimHP18}{5}
\bibcite{DBLP:journals/virology/FeistMP14}{6}
\bibcite{hathhorn-ellison-rosu-2015-pldi}{7}
\bibcite{DBLP:conf/spin/HenzingerJMS03}{8}
\bibcite{Ralf2018}{9}
\bibcite{DBLP:conf/ecoop/KaiserDDLV17}{10}
\bibcite{OSL}{11}
\bibcite{Niko2018}{12}
\bibcite{DBLP:conf/pldi/NagarakatteZMZ09}{13}
\bibcite{DBLP:conf/iwmm/NagarakatteZMZ10}{14}
\bibcite{DBLP:conf/icfp/PottierP13}{15}
\bibcite{Eric2015}{16}
\bibcite{DBLP:conf/lics/Reynolds02}{17}
\bibcite{DBLP:conf/rv/RosuSS09}{18}
\bibcite{rosu-serbanuta-2010-jlap}{19}
\bibcite{DBLP:journals/scp/SwamyHMGJ06}{20}
\bibcite{rusthome}{21}
\bibcite{rustdatarace}{22}
\bibcite{DBLP:conf/fossacs/YangO02}{23}
\@writefile{toc}{\contentsline {section}{\numberline {A}Proof Ideas}{17}{section.A.1}}
\newlabel{appendix:proofidea}{{A}{17}{Proof Ideas}{section.A.1}{}}
\@writefile{toc}{\contentsline {paragraph}{The proof of Theorem \ref  {thm:terminal}.}{17}{section*.12}}
\@writefile{toc}{\contentsline {paragraph}{The proof of Theorem \ref  {lemma:no-dangling-pointers}.}{18}{section*.13}}
\@writefile{toc}{\contentsline {paragraph}{The proof of Theorem \ref  {thm:no-data-races}.}{18}{section*.14}}
\@writefile{toc}{\contentsline {section}{\numberline {B}An Example of Recursive Functions in Rust to non-Recursive Functions in OSL}{18}{section.A.2}}
\newlabel{appendix:recursiveexample}{{B}{18}{An Example of Recursive Functions in Rust to non-Recursive Functions in OSL}{section.A.2}{}}
